module main.go

go 1.13

require (
	github.com/dgrijalva/jwt-go v3.2.0+incompatible // indirect
	github.com/labstack/echo v3.3.10+incompatible
	github.com/labstack/gommon v0.3.0 // indirect
	github.com/stretchr/testify v1.6.1 // indirect
	github.com/valyala/fasttemplate v1.1.1 // indirect
	golang.org/x/crypto v0.0.0-20200604202706-70a84ac30bf9 // indirect
)
